{
	"module": "legacy",
	"data": {
		"materials": [
			{
				"id": "crimsonice",
				"priceMod": 20,
				"tohit": 10,
				"bonus": 3,
				"kind": "ice",
				"noproc":true,
				"level": 5
			},
			{
				"id": "coldsteel",
				"kind": "metal",
				"priceMod": 30,
				"tohit": 9,
				"enchants": 4,
				"bonus": 7,
				"noproc":true,
				"level": 5
			},
			{
				"id": "permafrost",
				"priceMod": 80,
				"bonus": 10,
				"tohit": 11,
				"kind": "ice",
				"noproc":true,
				"level": 7
			}
		],
		"potions": [
			{
				"id": "pumpcider",
				"name": "spoiled pumpkin cider",
				"level": 1,
				"cost": {
					"gold": 1
				},
				"use": {
					"dot": {
						"duration": 45,
						"effect": {
							"hp": "-1"
						}
					}
				},
				"flavor": "Used to be a refreshing brew, now nothing more than a bottle of rot."
			},
			{
				"id": "bubblebrew",
				"name": "once-bubbling brew",
				"level": 1,
				"cost": {

					"herbs": 1
				},
				"use": {
					"hp": "-1"
				},
				"flavor": "Flat and flavorless."
			},
			{
				"id": "pot_icecreamevil",
				"name": "ice cream puddle",
				"desc": "Not very attractive, to children or otherwise.",
				"cost": {
					"herbs": 1
				},
				"sell": {
					"gold": 1
				},
				"use": {
					"dot": {
						"id": "icecreamlure",
						"name": "ice cream puddle",
						"duration": 30,
						"mod": {
							"eatchildren.effect.stress": -0.01
						}
					}
				}
			},
			{
				"id": "pot_icecream",
				"name": "Melted ice cream",
				"desc": "Used to be a refreshing treat, now it's just nasty mush.",
				"cost": {
					"herbs": 1
				},
				"sell": {
					"gold": 1
				},
				"use": {
					"dot": {
						"id": "icecream",
						"name": "ice cream low",
						"duration": 30,
						"effect": {
							"hp": 0.01
						}
					}
				}
			}
		],
		"rares": [
			{
				"id":"vorpal",
				"sym": "🎃",
				"name":"vorpal blade",
				"level":14,
				"type":"weapon",
				"tags": "t_longsword,t_swords",
				"material":"quicksteel",
				"tohit":10,
				"attack":{
					"kind":"slash",
					"dmg":"5~10"
				}
			},
			{
				"id":"bdagg",
				"sym": "🎃",
				"name":"necrotic dagger",
				"material":"bone",
				"type":"weapon",
				"tags": "t_dagger",
				"tohit":2,
				"attack":{ 
					"kind":"pierce", 
					"damage":"1~3",
					"dot":{
						"duration":3,
						"dmg":"1~2",
						"name":"necrosis",
						"kind":"necrotic"
					}
				}, 
				"cost":20, 
				"level":3
			},
			{
				"id": "iceorb",
				"sym": "❄️",
				"name": "orb of winters",
				"tags":"t_event,t_orb",
				"hands":2,
				"desc": "A snowglobe with magical powers. It reminds you of colder days.",
				"level": 10,
				"material":"glass",
				"type": "weapon",
				"enchants": 10,
				"sell": {
					"gold": 100
				},
				"attack": {
					"name": "blizzard",
					"tohit": 10,
					"damage": "8~15",
					"kind": "water",
					"targets": "enemies",
					"dot": {
						"duration": 20,
						"id":"frostbite",
						"kind": "water",
						"dmg": "8~15",
						"mod": {
							"self.speed": -5
						}
					}
				},
				"alter":{
					"mod": {
						"ice.rate": "20%",
						"ice.max": "20%",
						"icelore.rate": 2,
						"water.rate": "20%",
						"water.max": "20%",
						"waterlore.rate": 2,
						"fire.rate": "-80%",
						"fire.max": "-80%"
					}
				}
			},
			{
				"id": "hal_amulet",
				"sym": "🎃",
				"name": "hestia's charm",
				"desc": "Hestia's amulet throbs with a dull purple light.",
				"type": "armor",
				"armor": 2,
				"slot": "neck",
				"alter": {
					"mod": {
						"player.resist.necrotic": 20
					}
				}
			},
			{
				"id": "nymiescharm",
				"sym": "🎃",
				"name": "nymie's charm",
				"desc": "A small figurine of a black cat.",
				"level": 20,
				"type": "armor",
				"slot": "trinket",
				"enchants": 0
			},
			{
				"id": "coldnecklace",
				"name": "coldsteel necklace",
				"desc": "Wearing it makes your thoughts cold and your focus sharp.",
				"unique": true,
				"level": 1,
				"armor": 3,
				"type": "armor",
				"kind": "necklace",
				"slot": "neck",
				"enchants": 10,
				"alter": {
					"mod": {
						"focus.effect.runner.exp": "25%",
						"stress.rate": -0.3
					}
				}
			}
		]
	}
}
